{
	"portfolio": {
		"slug"          : "making-of-voorhoede-nl",
		"title"         : "The making of voorhoede.nl",
		"keywords"      : "voorhoede.nl, making of, interactief, HTML, CSS, psuedo-elements",
		"date"          : "2014-24-04",
		"author"        : "de Voorhoede",
		"isCase"   		: true,
		"headerImage"   : "making-of-voorhoede-header.min.png",
		"imageAltText"	: "Onderdelen die samen de tekst koppen opmaken",
		"language"		: "nl",
		"excerpt" : {
			"text"      : "Een kijkje onder de motorkap. Zie stap voor stap hoe we het design van voorhoede.nl geïmplementeerd hebben.",
			"image"     : "making-of-voorhoede-excerpt.min.png"
		}
	}
}